Projetos Quartus/ex_02/simulation/qsim/Aula_03_ex_02.msim.vcd
$comment
	File created using the following command:
		vcd file Aula_03_ex_02.msim.vcd -direction
$end
$date
	Wed Sep 24 21:40:30 2025
$end
$version
	ModelSim Version 2020.1
$end
$timescale
	1ps
$end

$scope module aula_03_ex_02_vhd_vec_tst $end
$var wire 1 ! c_7s [6] $end
$var wire 1 " c_7s [5] $end
$var wire 1 # c_7s [4] $end
$var wire 1 $ c_7s [3] $end
$var wire 1 % c_7s [2] $end
$var wire 1 & c_7s [1] $end
$var wire 1 ' c_7s [0] $end
$var wire 1 ( clk $end
$var wire 1 ) clr $end

$scope module i1 $end
$var wire 1 * gnd $end
$var wire 1 + vcc $end
$var wire 1 , unknown $end
$var wire 1 - devoe $end
$var wire 1 . devclrn $end
$var wire 1 / devpor $end
$var wire 1 0 ww_devoe $end
$var wire 1 1 ww_devclrn $end
$var wire 1 2 ww_devpor $end
$var wire 1 3 ww_clk $end
$var wire 1 4 ww_clr $end
$var wire 1 5 ww_c_7s [6] $end
$var wire 1 6 ww_c_7s [5] $end
$var wire 1 7 ww_c_7s [4] $end
$var wire 1 8 ww_c_7s [3] $end
$var wire 1 9 ww_c_7s [2] $end
$var wire 1 : ww_c_7s [1] $end
$var wire 1 ; ww_c_7s [0] $end
$var wire 1 < \clk~combout\ $end
$var wire 1 = \clr~combout\ $end
$var wire 1 > \cnt|LPM_COUNTER_component|auto_generated|counter_cella0~COUT\ $end
$var wire 1 ? \cnt|LPM_COUNTER_component|auto_generated|counter_cella0~COUTCOUT1_1\ $end
$var wire 1 @ \cnt|LPM_COUNTER_component|auto_generated|counter_cella1~COUT\ $end
$var wire 1 A \cnt|LPM_COUNTER_component|auto_generated|counter_cella1~COUTCOUT1_1\ $end
$var wire 1 B \cnt|LPM_COUNTER_component|auto_generated|counter_cella2~COUT\ $end
$var wire 1 C \cnt|LPM_COUNTER_component|auto_generated|counter_cella2~COUTCOUT1_1\ $end
$var wire 1 D \Mux6~0_combout\ $end
$var wire 1 E \Mux5~0_combout\ $end
$var wire 1 F \Mux4~0_combout\ $end
$var wire 1 G \Mux3~0_combout\ $end
$var wire 1 H \Mux2~0_combout\ $end
$var wire 1 I \Mux1~0_combout\ $end
$var wire 1 J \Mux0~0_combout\ $end
$var wire 1 K \cnt|LPM_COUNTER_component|auto_generated|safe_q\ [3] $end
$var wire 1 L \cnt|LPM_COUNTER_component|auto_generated|safe_q\ [2] $end
$var wire 1 M \cnt|LPM_COUNTER_component|auto_generated|safe_q\ [1] $end
$var wire 1 N \cnt|LPM_COUNTER_component|auto_generated|safe_q\ [0] $end
$var wire 1 O \ALT_INV_clr~combout\ $end
$var wire 1 P \ALT_INV_Mux0~0_combout\ $end
$var wire 1 Q \ALT_INV_Mux1~0_combout\ $end
$var wire 1 R \ALT_INV_Mux2~0_combout\ $end
$var wire 1 S \ALT_INV_Mux3~0_combout\ $end
$var wire 1 T \ALT_INV_Mux4~0_combout\ $end
$var wire 1 U \ALT_INV_Mux5~0_combout\ $end
$upscope $end
$upscope $end
$enddefinitions $end
#0
$dumpvars
0(
1)
0*
1+
x,
1-
1.
1/
10
11
12
03
14
0<
1=
0>
0?
1@
1A
0B
0C
0D
0E
0F
0G
0H
0I
0J
0O
1P
1Q
1R
1S
1T
1U
1!
1"
1#
1$
1%
1&
0'
15
16
17
18
19
1:
0;
0K
0L
0M
0N
$end
#50000
1(
13
1<
1N
1>
1?
1E
1F
1G
1J
0P
0S
0T
0U
0:
09
08
05
0&
0%
0$
0!
#100000
0(
03
0<
#150000
1(
13
1<
1M
0N
0>
0?
0@
0A
1D
0F
0G
1H
0J
1P
0R
1S
1T
1;
1@
1A
19
18
07
15
1'
1%
1$
0#
1!
#200000
0(
03
0<
#250000
1(
13
1<
1N
1>
1?
1F
0H
1R
0T
0@
0A
09
17
0%
1#
#300000
0(
03
0<
#350000
1(
13
1<
1L
0M
0N
0>
0?
1@
1A
1B
1C
0E
1G
1J
0P
0S
1U
0B
0C
1:
08
05
1&
0$
0!
#400000
0(
03
0<
#450000
1(
13
1<
1N
1>
1?
0G
1I
0J
1P
0Q
1S
18
06
15
1$
0"
1!
#500000
0(
03
0<
#550000
1(
13
1<
1M
0N
0>
0?
0@
0A
0F
1T
1B
1C
1@
1A
19
0B
0C
1%
#600000
0(
03
0<
#650000
1(
13
1<
1N
1>
1?
0D
1E
1F
1G
0I
1Q
0S
0T
0U
0;
0@
0A
0:
09
08
16
0'
1B
1C
0&
0%
0$
1"
#700000
0(
03
0<
#750000
1(
13
1<
1K
0L
0M
0N
0>
0?
1@
1A
0B
0C
1D
0E
0F
0G
1S
1T
1U
1;
1:
19
18
1'
1&
1%
1$
#800000
0(
03
0<
#850000
1(
13
1<
1N
1>
1?
1F
1G
0S
0T
09
08
0%
0$
#900000
0(
03
0<
#950000
1(
13
1<
1M
0N
0>
0?
0@
0A
0F
1T
1@
1A
19
1%
