Aula_03/ex_01/simulation/qsim/Aula_03_ex_01.msim.vcd
$comment
	File created using the following command:
		vcd file Aula_03_ex_01.msim.vcd -direction
$end
$date
	Mon Sep 22 01:09:26 2025
$end
$version
	ModelSim Version 2020.1
$end
$timescale
	1ps
$end

$scope module aula_03_ex_01_vhd_vec_tst $end
$var wire 1 ! c_7s [6] $end
$var wire 1 " c_7s [5] $end
$var wire 1 # c_7s [4] $end
$var wire 1 $ c_7s [3] $end
$var wire 1 % c_7s [2] $end
$var wire 1 & c_7s [1] $end
$var wire 1 ' c_7s [0] $end
$var wire 1 ( cnt_i [3] $end
$var wire 1 ) cnt_i [2] $end
$var wire 1 * cnt_i [1] $end
$var wire 1 + cnt_i [0] $end

$scope module i1 $end
$var wire 1 , gnd $end
$var wire 1 - vcc $end
$var wire 1 . unknown $end
$var wire 1 / devoe $end
$var wire 1 0 devclrn $end
$var wire 1 1 devpor $end
$var wire 1 2 ww_devoe $end
$var wire 1 3 ww_devclrn $end
$var wire 1 4 ww_devpor $end
$var wire 1 5 ww_cnt_i [3] $end
$var wire 1 6 ww_cnt_i [2] $end
$var wire 1 7 ww_cnt_i [1] $end
$var wire 1 8 ww_cnt_i [0] $end
$var wire 1 9 ww_c_7s [6] $end
$var wire 1 : ww_c_7s [5] $end
$var wire 1 ; ww_c_7s [4] $end
$var wire 1 < ww_c_7s [3] $end
$var wire 1 = ww_c_7s [2] $end
$var wire 1 > ww_c_7s [1] $end
$var wire 1 ? ww_c_7s [0] $end
$var wire 1 @ \Mux6~0_combout\ $end
$var wire 1 A \Mux5~0_combout\ $end
$var wire 1 B \Mux4~0_combout\ $end
$var wire 1 C \Mux3~0_combout\ $end
$var wire 1 D \Mux2~0_combout\ $end
$var wire 1 E \Mux1~0_combout\ $end
$var wire 1 F \Mux0~0_combout\ $end
$var wire 1 G \cnt_i~combout\ [3] $end
$var wire 1 H \cnt_i~combout\ [2] $end
$var wire 1 I \cnt_i~combout\ [1] $end
$var wire 1 J \cnt_i~combout\ [0] $end
$var wire 1 K \ALT_INV_Mux0~0_combout\ $end
$var wire 1 L \ALT_INV_Mux1~0_combout\ $end
$var wire 1 M \ALT_INV_Mux2~0_combout\ $end
$var wire 1 N \ALT_INV_Mux3~0_combout\ $end
$var wire 1 O \ALT_INV_Mux4~0_combout\ $end
$var wire 1 P \ALT_INV_Mux5~0_combout\ $end
$upscope $end
$upscope $end
$enddefinitions $end
#0
$dumpvars
0,
1-
x.
1/
10
11
12
13
14
0@
0A
0B
0C
0D
0E
0F
1K
1L
1M
1N
1O
1P
0(
0)
0*
0+
1!
1"
1#
1$
1%
1&
0'
05
06
07
08
19
1:
1;
1<
1=
1>
0?
0G
0H
0I
0J
$end
#50000
1(
1)
1*
1+
18
17
16
15
1G
1H
1I
1J
1@
1C
1D
0M
0N
1?
0<
0;
1'
0$
0#
#100000
0(
0)
0*
0+
08
07
06
05
0G
0H
0I
0J
0@
0C
0D
1M
1N
0?
1<
1;
0'
1$
1#
#150000
1(
1)
1*
1+
18
17
16
15
1G
1H
1I
1J
1@
1C
1D
0M
0N
1?
0<
0;
1'
0$
0#
#200000
0(
0)
0*
0+
08
07
06
05
0G
0H
0I
0J
0@
0C
0D
1M
1N
0?
1<
1;
0'
1$
1#
#250000
1(
1)
1*
1+
18
17
16
15
1G
1H
1I
1J
1@
1C
1D
0M
0N
1?
0<
0;
1'
0$
0#
#300000
0(
0)
0*
0+
08
07
06
05
0G
0H
0I
0J
0@
0C
0D
1M
1N
0?
1<
1;
0'
1$
1#
#350000
1(
1)
1*
1+
18
17
16
15
1G
1H
1I
1J
1@
1C
1D
0M
0N
1?
0<
0;
1'
0$
0#
#400000
0(
0)
0*
0+
08
07
06
05
0G
0H
0I
0J
0@
0C
0D
1M
1N
0?
1<
1;
0'
1$
1#
#450000
1(
1)
1*
1+
18
17
16
15
1G
1H
1I
1J
1@
1C
1D
0M
0N
1?
0<
0;
1'
0$
0#
#500000
0(
0)
0*
0+
08
07
06
05
0G
0H
0I
0J
0@
0C
0D
1M
1N
0?
1<
1;
0'
1$
1#
#550000
1(
1)
1*
1+
18
17
16
15
1G
1H
1I
1J
1@
1C
1D
0M
0N
1?
0<
0;
1'
0$
0#
#600000
0(
0)
0*
0+
08
07
06
05
0G
0H
0I
0J
0@
0C
0D
1M
1N
0?
1<
1;
0'
1$
1#
#650000
1(
1)
1*
1+
18
17
16
15
1G
1H
1I
1J
1@
1C
1D
0M
0N
1?
0<
0;
1'
0$
0#
#700000
0(
0)
0*
0+
08
07
06
05
0G
0H
0I
0J
0@
0C
0D
1M
1N
0?
1<
1;
0'
1$
1#
#750000
1(
1)
1*
1+
18
17
16
15
1G
1H
1I
1J
1@
1C
1D
0M
0N
1?
0<
0;
1'
0$
0#
#800000
0(
0)
0*
0+
08
07
06
05
0G
0H
0I
0J
0@
0C
0D
1M
1N
0?
1<
1;
0'
1$
1#
#850000
1(
1)
1*
1+
18
17
16
15
1G
1H
1I
1J
1@
1C
1D
0M
0N
1?
0<
0;
1'
0$
0#
#900000
0(
0)
0*
0+
08
07
06
05
0G
0H
0I
0J
0@
0C
0D
1M
1N
0?
1<
1;
0'
1$
1#
#950000
1(
1)
1*
1+
18
17
16
15
1G
1H
1I
1J
1@
1C
1D
0M
0N
1?
0<
0;
1'
0$
0#
